Initializing error report...
 1   Real_Time_Situation (
 2      Generation_Tool    => "MAST Schedulability Analysis, version 1.4.0.0",
 3      Generation_Profile => "C:\0000_tue-leiden-eclipse\marte_modeling_marte2mast\mast\mast_analysis.exe default -v -l -c -p C:\0000_tue-leiden-eclipse\marte_modeling_marte2mast\workspace\CRN_model\out-m2m\model.mast C:\0000_tue-leiden-eclipse\marte_modeling_marte2mast\workspace\CRN_model\out-m2m\model.mast.out",
 4      Generation_Date    => 2013-03-08T22:38:25);
 6   Transaction (
 7      Name     => message_handling,
 8      Results  => 
 9          ((Type                          => Timing_Result,
 10           Event_Name                    => message_handling__internal_event_1,
 11           Num_Of_Suspensions            => 0,
 12           Worst_Blocking_Time           => 0.000,
 13           Worst_Global_Response_Times   => 
 14              ((Referenced_Event => initialnode1,
 15                Time_Value       => 0.001120)),
 16           Best_Global_Response_Times    => 
 17              ((Referenced_Event => initialnode1,
 18                Time_Value       => 8.000E-06)),
 19           Jitters                       => 
 20              ((Referenced_Event => initialnode1,
 21                Time_Value       => 0.001112))),
 22          (Type                          => Timing_Result,
 23           Event_Name                    => message_handling__internal_event_2,
 24           Num_Of_Suspensions            => 0,
 25           Worst_Blocking_Time           => 0.000,
 26           Worst_Global_Response_Times   => 
 27              ((Referenced_Event => initialnode1,
 28                Time_Value       => 0.008064)),
 29           Best_Global_Response_Times    => 
 30              ((Referenced_Event => initialnode1,
 31                Time_Value       => 0.006952)),
 32           Jitters                       => 
 33              ((Referenced_Event => initialnode1,
 34                Time_Value       => 0.001112))),
 35          (Type                          => Timing_Result,
 36           Event_Name                    => message_handling__internal_event_3,
 37           Num_Of_Suspensions            => 0,
 38           Worst_Blocking_Time           => 0.000,
 39           Worst_Global_Response_Times   => 
 40              ((Referenced_Event => initialnode1,
 41                Time_Value       => 0.018084)),
 42           Best_Global_Response_Times    => 
 43              ((Referenced_Event => initialnode1,
 44                Time_Value       => 0.006960)),
 45           Jitters                       => 
 46              ((Referenced_Event => initialnode1,
 47                Time_Value       => 0.011124))),
 48          (Type                          => Timing_Result,
 49           Event_Name                    => message_handling__internal_event_4,
 50           Num_Of_Suspensions            => 0,
 51           Worst_Blocking_Time           => 0.000,
 52           Worst_Global_Response_Times   => 
 53              ((Referenced_Event => initialnode1,
 54                Time_Value       => 0.032407)),
 55           Best_Global_Response_Times    => 
 56              ((Referenced_Event => initialnode1,
 57                Time_Value       => 0.013905)),
 58           Jitters                       => 
 59              ((Referenced_Event => initialnode1,
 60                Time_Value       => 0.018502))),
 61          (Type                          => Timing_Result,
 62           Event_Name                    => message_handling__internal_event_5,
 63           Num_Of_Suspensions            => 0,
 64           Worst_Blocking_Time           => 0.000,
 65           Worst_Global_Response_Times   => 
 66              ((Referenced_Event => initialnode1,
 67                Time_Value       => 0.034047)),
 68           Best_Global_Response_Times    => 
 69              ((Referenced_Event => initialnode1,
 70                Time_Value       => 0.013913)),
 71           Jitters                       => 
 72              ((Referenced_Event => initialnode1,
 73                Time_Value       => 0.020134)))));
 75  Transaction (
 76     Name     => change_volume,
 77     Results  => 
 78         ((Type                          => Timing_Result,
 79           Event_Name                    => change_volume__internal_event_1,
 80           Num_Of_Suspensions            => 0,
 81           Worst_Blocking_Time           => 0.000,
 82           Worst_Global_Response_Times   => 
 83              ((Referenced_Event => initialnode1,
 84                Time_Value       => 0.001130)),
 85           Best_Global_Response_Times    => 
 86              ((Referenced_Event => initialnode1,
 87                Time_Value       => 8.000E-06)),
 88           Jitters                       => 
 89              ((Referenced_Event => initialnode1,
 90                Time_Value       => 0.001122))),
 91          (Type                          => Timing_Result,
 92           Event_Name                    => change_volume__internal_event_2,
 93           Num_Of_Suspensions            => 0,
 94           Worst_Blocking_Time           => 0.000,
 95           Worst_Global_Response_Times   => 
 96              ((Referenced_Event => initialnode1,
 97                Time_Value       => 0.001678)),
 98           Best_Global_Response_Times    => 
 99              ((Referenced_Event => initialnode1,
 100               Time_Value       => 5.562E-04)),
 101          Jitters                       => 
 102             ((Referenced_Event => initialnode1,
 103               Time_Value       => 0.001122))),
 104         (Type                          => Timing_Result,
 105          Event_Name                    => change_volume__internal_event_3,
 106          Num_Of_Suspensions            => 0,
 107          Worst_Blocking_Time           => 0.000,
 108          Worst_Global_Response_Times   => 
 109             ((Referenced_Event => initialnode1,
 110               Time_Value       => 0.002798)),
 111          Best_Global_Response_Times    => 
 112             ((Referenced_Event => initialnode1,
 113               Time_Value       => 5.642E-04)),
 114          Jitters                       => 
 115             ((Referenced_Event => initialnode1,
 116               Time_Value       => 0.002234))),
 117         (Type                          => Timing_Result,
 118          Event_Name                    => change_volume__internal_event_4,
 119          Num_Of_Suspensions            => 0,
 120          Worst_Blocking_Time           => 0.000,
 121          Worst_Global_Response_Times   => 
 122             ((Referenced_Event => initialnode1,
 123               Time_Value       => 0.003346)),
 124          Best_Global_Response_Times    => 
 125             ((Referenced_Event => initialnode1,
 126               Time_Value       => 0.001112)),
 127          Jitters                       => 
 128             ((Referenced_Event => initialnode1,
 129               Time_Value       => 0.002234))),
 130         (Type                          => Timing_Result,
 131          Event_Name                    => change_volume__internal_event_5,
 132          Num_Of_Suspensions            => 0,
 133          Worst_Blocking_Time           => 0.000,
 134          Worst_Global_Response_Times   => 
 135             ((Referenced_Event => initialnode1,
 136               Time_Value       => 0.004876)),
 137          Best_Global_Response_Times    => 
 138             ((Referenced_Event => initialnode1,
 139               Time_Value       => 0.001120)),
 140          Jitters                       => 
 141             ((Referenced_Event => initialnode1,
 142               Time_Value       => 0.003756)))));
 144 Transaction (
 145    Name     => address_lookup,
 146    Results  => 
 147        ((Type                          => Timing_Result,
 148          Event_Name                    => address_lookup__internal_event_1,
 149          Num_Of_Suspensions            => 0,
 150          Worst_Blocking_Time           => 0.000,
 151          Worst_Global_Response_Times   => 
 152             ((Referenced_Event => initialnode1,
 153               Time_Value       => 0.001240)),
 154          Best_Global_Response_Times    => 
 155             ((Referenced_Event => initialnode1,
 156               Time_Value       => 8.000E-06)),
 157          Jitters                       => 
 158             ((Referenced_Event => initialnode1,
 159               Time_Value       => 0.001232))),
 160         (Type                          => Timing_Result,
 161          Event_Name                    => address_lookup__internal_event_2,
 162          Num_Of_Suspensions            => 0,
 163          Worst_Blocking_Time           => 0.000,
 164          Worst_Global_Response_Times   => 
 165             ((Referenced_Event => initialnode1,
 166               Time_Value       => 0.008618)),
 167          Best_Global_Response_Times    => 
 168             ((Referenced_Event => initialnode1,
 169               Time_Value       => 4.420E-04)),
 170          Jitters                       => 
 171             ((Referenced_Event => initialnode1,
 172               Time_Value       => 0.008176))),
 173         (Type                          => Timing_Result,
 174          Event_Name                    => address_lookup__internal_event_3,
 175          Num_Of_Suspensions            => 0,
 176          Worst_Blocking_Time           => 0.000,
 177          Worst_Global_Response_Times   => 
 178             ((Referenced_Event => initialnode1,
 179               Time_Value       => 0.018638)),
 180          Best_Global_Response_Times    => 
 181             ((Referenced_Event => initialnode1,
 182               Time_Value       => 4.500E-04)),
 183          Jitters                       => 
 184             ((Referenced_Event => initialnode1,
 185               Time_Value       => 0.018188))),
 186         (Type                          => Timing_Result,
 187          Event_Name                    => address_lookup__internal_event_4,
 188          Num_Of_Suspensions            => 0,
 189          Worst_Blocking_Time           => 0.000,
 190          Worst_Global_Response_Times   => 
 191             ((Referenced_Event => initialnode1,
 192               Time_Value       => 0.032527)),
 193          Best_Global_Response_Times    => 
 194             ((Referenced_Event => initialnode1,
 195               Time_Value       => 0.007394)),
 196          Jitters                       => 
 197             ((Referenced_Event => initialnode1,
 198               Time_Value       => 0.025133))),
 199         (Type                          => Timing_Result,
 200          Event_Name                    => address_lookup__internal_event_5,
 201          Num_Of_Suspensions            => 0,
 202          Worst_Blocking_Time           => 0.000,
 203          Worst_Global_Response_Times   => 
 204             ((Referenced_Event => initialnode1,
 205               Time_Value       => 0.034167)),
 206          Best_Global_Response_Times    => 
 207             ((Referenced_Event => initialnode1,
 208               Time_Value       => 0.007402)),
 209          Jitters                       => 
 210             ((Referenced_Event => initialnode1,
 211               Time_Value       => 0.026765)))));
 213 Processing_Resource (
 214    Name     => station3,
 215    Results  => 
 216        ((Type   => Utilization,
 217          Total  => 0.388505%)));
 219 Processing_Resource (
 220    Name     => bus_mmi_rad,
 221    Results  => 
 222        ((Type   => Utilization,
 223          Total  => 3.54%)));
 225 Processing_Resource (
 226    Name     => station1,
 227    Results  => 
 228        ((Type   => Utilization,
 229          Total  => 2.08%)));
 231 Processing_Resource (
 232    Name     => bus_mmi_nav,
 233    Results  => 
 234        ((Type   => Utilization,
 235          Total  => 0.969329%)));
 237 Processing_Resource (
 238    Name     => bus_rad_nav,
 239    Results  => 
 240        ((Type   => Utilization,
 241          Total  => 0.231481%)));
 243 Processing_Resource (
 244    Name     => station2,
 245    Results  => 
 246        ((Type   => Utilization,
 247          Total  => 0.668000%)));
 248 

